n_delay/sim/functional.vcd
$timescale
 1ps
$end

$scope module FUNC_TB $end
$var wire       1 #    IN_SIG $end
$var wire       1 $    OUT_SIG $end

$scope module DELAY_INSTANCE $end
$var wire       1 #    N_DEL_IN $end
$var wire       1 $    N_DEL_OUT $end
$var wire       1 &    INTSIG_DELAY_6_0 $end
$var wire       1 '    INTSIG_DELAY_4_0 $end
$var wire       1 (    INTSIG_DELAY_5_0 $end
$var wire       1 )    INTSIG_DELAY_3_0 $end
$var wire       1 *    INTSIG_DELAY_2_0 $end
$var wire       1 +    INTSIG_DELAY_1_0 $end
$var wire       1 ,    DELAY_TEST_OUT_C_F $end
$var wire       1 -    VCC $end
$var wire       6 .    INTSIG_DELAY [6:1] $end

$scope module DELAY_TEST_OUT_C_XUSED $end
$var wire       1 $    O $end
$var wire       1 ,    I $end
$var wire       1 0    XON $end
$var wire       1 1    MSGON $end
$var time      64 5    PATHPULSE $end
$var wire       1 6    I_IPD $end

$scope begin WIREDELAY $end

$scope task _P0 $end
$upscope $end
$upscope $end

$scope task VITALBEHAVIOR $end
$upscope $end
$upscope $end

$scope module DELAY_TEST_OUT_C_YUSED $end
$var wire       1 (    O $end
$var wire       1 ;    I $end
$var wire       1 <    XON $end
$var wire       1 =    MSGON $end
$var time      64 A    PATHPULSE $end
$var wire       1 B    I_IPD $end

$scope begin WIREDELAY $end

$scope task _P0 $end
$upscope $end
$upscope $end

$scope task VITALBEHAVIOR $end
$upscope $end
$upscope $end

$scope module N_DELAY_5_LUT_INSTANCE $end
$var wire       1 ;    O $end
$var wire       1 -    ADR0 $end
$var wire       1 -    ADR1 $end
$var wire       1 '    ADR2 $end
$var wire       1 -    ADR3 $end
$var wire       1 G    XON $end
$var wire       1 H    MSGON $end
$var wire      16 R    INIT [0:15] $end
$var wire      16 S    INIT_REG [15:0] $end
$var wire       1 T    ADR0_IPD $end
$var wire       1 U    ADR1_IPD $end
$var wire       1 V    ADR2_IPD $end
$var wire       1 W    ADR3_IPD $end
$var wire       1 X    O_ZD $end

$scope function LUT4_MUX4(STD_LOGIC_VECTOR,STD_LOGIC_VECTOR) $end
$upscope $end

$scope begin WIREDELAY $end

$scope task _P0 $end
$upscope $end

$scope task _P1 $end
$upscope $end

$scope task _P2 $end
$upscope $end

$scope task _P3 $end
$upscope $end
$upscope $end

$scope task X_LUT4P $end
$upscope $end

$scope task VITALTIMING $end
$upscope $end
$upscope $end

$scope module N_DELAY_INST_INTSIG_DELAY_6_XUSED $end
$var wire       1 &    O $end
$var wire       1 b    I $end
$var wire       1 c    XON $end
$var wire       1 d    MSGON $end
$var time      64 h    PATHPULSE $end
$var wire       1 i    I_IPD $end

$scope begin WIREDELAY $end

$scope task _P0 $end
$upscope $end
$upscope $end

$scope task VITALBEHAVIOR $end
$upscope $end
$upscope $end

$scope module N_DELAY_INST_INTSIG_DELAY_6_YUSED $end
$var wire       1 '    O $end
$var wire       1 n    I $end
$var wire       1 o    XON $end
$var wire       1 p    MSGON $end
$var time      64 t    PATHPULSE $end
$var wire       1 u    I_IPD $end

$scope begin WIREDELAY $end

$scope task _P0 $end
$upscope $end
$upscope $end

$scope task VITALBEHAVIOR $end
$upscope $end
$upscope $end

$scope module N_DELAY_4_LUT_INSTANCE $end
$var wire       1 n    O $end
$var wire       1 -    ADR0 $end
$var wire       1 -    ADR1 $end
$var wire       1 )    ADR2 $end
$var wire       1 -    ADR3 $end
$var wire       1 z    XON $end
$var wire       1 {    MSGON $end
$var wire      16 '"   INIT [0:15] $end
$var wire      16 ("   INIT_REG [15:0] $end
$var wire       1 )"   ADR0_IPD $end
$var wire       1 *"   ADR1_IPD $end
$var wire       1 +"   ADR2_IPD $end
$var wire       1 ,"   ADR3_IPD $end
$var wire       1 -"   O_ZD $end

$scope function LUT4_MUX4(STD_LOGIC_VECTOR,STD_LOGIC_VECTOR) $end
$upscope $end

$scope begin WIREDELAY $end

$scope task _P0 $end
$upscope $end

$scope task _P1 $end
$upscope $end

$scope task _P2 $end
$upscope $end

$scope task _P3 $end
$upscope $end
$upscope $end

$scope task X_LUT4P $end
$upscope $end

$scope task VITALTIMING $end
$upscope $end
$upscope $end

$scope module N_DELAY_INST_INTSIG_DELAY_3_XUSED $end
$var wire       1 )    O $end
$var wire       1 7"   I $end
$var wire       1 8"   XON $end
$var wire       1 9"   MSGON $end
$var time      64 ="   PATHPULSE $end
$var wire       1 >"   I_IPD $end

$scope begin WIREDELAY $end

$scope task _P0 $end
$upscope $end
$upscope $end

$scope task VITALBEHAVIOR $end
$upscope $end
$upscope $end

$scope module N_DELAY_INST_INTSIG_DELAY_3_YUSED $end
$var wire       1 +    O $end
$var wire       1 C"   I $end
$var wire       1 D"   XON $end
$var wire       1 E"   MSGON $end
$var time      64 I"   PATHPULSE $end
$var wire       1 J"   I_IPD $end

$scope begin WIREDELAY $end

$scope task _P0 $end
$upscope $end
$upscope $end

$scope task VITALBEHAVIOR $end
$upscope $end
$upscope $end

$scope module N_DELAY_1_LUT_INSTANCE $end
$var wire       1 C"   O $end
$var wire       1 -    ADR0 $end
$var wire       1 -    ADR1 $end
$var wire       1 #    ADR2 $end
$var wire       1 -    ADR3 $end
$var wire       1 O"   XON $end
$var wire       1 P"   MSGON $end
$var wire      16 Z"   INIT [0:15] $end
$var wire      16 ["   INIT_REG [15:0] $end
$var wire       1 \"   ADR0_IPD $end
$var wire       1 ]"   ADR1_IPD $end
$var wire       1 ^"   ADR2_IPD $end
$var wire       1 _"   ADR3_IPD $end
$var wire       1 `"   O_ZD $end

$scope function LUT4_MUX4(STD_LOGIC_VECTOR,STD_LOGIC_VECTOR) $end
$upscope $end

$scope begin WIREDELAY $end

$scope task _P0 $end
$upscope $end

$scope task _P1 $end
$upscope $end

$scope task _P2 $end
$upscope $end

$scope task _P3 $end
$upscope $end
$upscope $end

$scope task X_LUT4P $end
$upscope $end

$scope task VITALTIMING $end
$upscope $end
$upscope $end

$scope module N_DELAY_INST_INTSIG_DELAY_2_XUSED $end
$var wire       1 *    O $end
$var wire       1 j"   I $end
$var wire       1 k"   XON $end
$var wire       1 l"   MSGON $end
$var time      64 p"   PATHPULSE $end
$var wire       1 q"   I_IPD $end

$scope begin WIREDELAY $end

$scope task _P0 $end
$upscope $end
$upscope $end

$scope task VITALBEHAVIOR $end
$upscope $end
$upscope $end

$scope module N_DELAY_2_LUT_INSTANCE $end
$var wire       1 j"   O $end
$var wire       1 -    ADR0 $end
$var wire       1 -    ADR1 $end
$var wire       1 +    ADR2 $end
$var wire       1 -    ADR3 $end
$var wire       1 v"   XON $end
$var wire       1 w"   MSGON $end
$var wire      16 ##   INIT [0:15] $end
$var wire      16 $#   INIT_REG [15:0] $end
$var wire       1 %#   ADR0_IPD $end
$var wire       1 &#   ADR1_IPD $end
$var wire       1 '#   ADR2_IPD $end
$var wire       1 (#   ADR3_IPD $end
$var wire       1 )#   O_ZD $end

$scope function LUT4_MUX4(STD_LOGIC_VECTOR,STD_LOGIC_VECTOR) $end
$upscope $end

$scope begin WIREDELAY $end

$scope task _P0 $end
$upscope $end

$scope task _P1 $end
$upscope $end

$scope task _P2 $end
$upscope $end

$scope task _P3 $end
$upscope $end
$upscope $end

$scope task X_LUT4P $end
$upscope $end

$scope task VITALTIMING $end
$upscope $end
$upscope $end

$scope module N_DELAY_7_LUT_INSTANCE $end
$var wire       1 ,    O $end
$var wire       1 -    ADR0 $end
$var wire       1 &    ADR1 $end
$var wire       1 -    ADR2 $end
$var wire       1 -    ADR3 $end
$var wire       1 3#   XON $end
$var wire       1 4#   MSGON $end
$var wire      16 >#   INIT [0:15] $end
$var wire      16 ?#   INIT_REG [15:0] $end
$var wire       1 @#   ADR0_IPD $end
$var wire       1 A#   ADR1_IPD $end
$var wire       1 B#   ADR2_IPD $end
$var wire       1 C#   ADR3_IPD $end
$var wire       1 D#   O_ZD $end

$scope function LUT4_MUX4(STD_LOGIC_VECTOR,STD_LOGIC_VECTOR) $end
$upscope $end

$scope begin WIREDELAY $end

$scope task _P0 $end
$upscope $end

$scope task _P1 $end
$upscope $end

$scope task _P2 $end
$upscope $end

$scope task _P3 $end
$upscope $end
$upscope $end

$scope task X_LUT4P $end
$upscope $end

$scope task VITALTIMING $end
$upscope $end
$upscope $end

$scope module N_DELAY_6_LUT_INSTANCE $end
$var wire       1 b    O $end
$var wire       1 -    ADR0 $end
$var wire       1 -    ADR1 $end
$var wire       1 -    ADR2 $end
$var wire       1 (    ADR3 $end
$var wire       1 N#   XON $end
$var wire       1 O#   MSGON $end
$var wire      16 Y#   INIT [0:15] $end
$var wire      16 Z#   INIT_REG [15:0] $end
$var wire       1 [#   ADR0_IPD $end
$var wire       1 \#   ADR1_IPD $end
$var wire       1 ]#   ADR2_IPD $end
$var wire       1 ^#   ADR3_IPD $end
$var wire       1 _#   O_ZD $end

$scope function LUT4_MUX4(STD_LOGIC_VECTOR,STD_LOGIC_VECTOR) $end
$upscope $end

$scope begin WIREDELAY $end

$scope task _P0 $end
$upscope $end

$scope task _P1 $end
$upscope $end

$scope task _P2 $end
$upscope $end

$scope task _P3 $end
$upscope $end
$upscope $end

$scope task X_LUT4P $end
$upscope $end

$scope task VITALTIMING $end
$upscope $end
$upscope $end

$scope module N_DELAY_3_LUT_INSTANCE $end
$var wire       1 7"   O $end
$var wire       1 *    ADR0 $end
$var wire       1 -    ADR1 $end
$var wire       1 -    ADR2 $end
$var wire       1 -    ADR3 $end
$var wire       1 i#   XON $end
$var wire       1 j#   MSGON $end
$var wire      16 t#   INIT [0:15] $end
$var wire      16 u#   INIT_REG [15:0] $end
$var wire       1 v#   ADR0_IPD $end
$var wire       1 w#   ADR1_IPD $end
$var wire       1 x#   ADR2_IPD $end
$var wire       1 y#   ADR3_IPD $end
$var wire       1 z#   O_ZD $end

$scope function LUT4_MUX4(STD_LOGIC_VECTOR,STD_LOGIC_VECTOR) $end
$upscope $end

$scope begin WIREDELAY $end

$scope task _P0 $end
$upscope $end

$scope task _P1 $end
$upscope $end

$scope task _P2 $end
$upscope $end

$scope task _P3 $end
$upscope $end
$upscope $end

$scope task X_LUT4P $end
$upscope $end

$scope task VITALTIMING $end
$upscope $end
$upscope $end

$scope module NLWBLOCK_N_DELAY_INST_VCC $end
$var wire       1 -    O $end

$scope task _P0 $end
$upscope $end
$upscope $end

$scope module NLWBLOCKROC $end
$var wire       1 )$   O $end
$var time      64 +$   ROC_WIDTH $end

$scope task ONE_SHOT $end
$upscope $end
$upscope $end

$scope module NLWBLOCKTOC $end
$var wire       1 /$   O $end
$var time      64 1$   TOC_WIDTH $end

$scope task ONE_SHOT $end
$upscope $end
$upscope $end
$upscope $end

$scope task _P0 $end
$upscope $end
$upscope $end
$enddefinitions $end
#0
$dumpvars
xb
xw#
1w#
xW
1W
b0000000000000000000000101110010100000000000000000000000000000000 A
x6
x6
x/$
0/$
x\"
1\"
x+
x@#
1@#
xA#
xn
1c
xx#
1x#
xX
xX
xB
xB
x]"
1]"
x,
b0000000000000000000000000000000000000000000000000000000000000000 1$
x^"
1-
xB#
1B#
1o
1d
xy#
1y#
b0000000000000000000000101110010100000000000000000000000000000000 ="
b1111000011110000 '"
1z
1N#
1{
x_"
1_"
bxxxxxx .
xC#
1C#
1p
x#
0#
xz#
xz#
b0000000000000000000000101110010100000000000000000000000000000000 I"
x>"
x>"
b1111111100000000 Y#
b1111000011110000 ("
xj"
1k"
1O#
x`"
x`"
xD#
xD#
x$
xJ"
xJ"
b1111000011110000 ##
1v"
b1111111100000000 Z#
x)"
1)"
x[#
1[#
x*"
1*"
1l"
x;
10
x)$
1)$
b1111000011110000 $#
1w"
1G
x\#
1\#
x+"
1<
11
x&
b0000000000000000000000101110010100000000000000000000000000000000 h
x%#
1%#
b1111000011110000 R
x7"
1H
x]#
1]#
x,"
1,"
1=
b0000000000000000000000101110010100000000000000000000000000000000 t
b0000000000000001100001101010000000000000000000000000000000000000 +$
x'
xi
xi
x&#
1&#
b1111000011110000 S
x'#
xT
1T
1i#
18"
x^#
x-"
x-"
xu
xu
x(
b1010101010101010 t#
xC"
b1010101010101010 u#
1D"
x(#
1(#
xU
1U
1j#
19"
x_#
x_#
b0000000000000000000000101110010100000000000000000000000000000000 p"
b1111000011110000 Z"
x)
b1100110011001100 >#
1O"
13#
14#
xv#
1E"
x)#
x)#
xV
xq"
xq"
b0000000000000000000000101110010100000000000000000000000000000000 5
b1111000011110000 ["
x*
b1100110011001100 ?#
1P"
$end
#43
x'#
#44
x+"
xV
#60
x^#
#74
xA#
#173
xv#
#343
0^"
0`"
#546
bxxxxxx .
x>"
xj"
xJ"
x7"
xC"
xq"
#552
xb
x6
xn
xB
x,
x;
xi
xu
bxxxxxx .
#889
0J"
0C"
bxxxxx0 .
#991
0+
#1034
0)#
0'#
#1580
0j"
0q"
bxxxx00 .
#1677
0*
#1850
0z#
0v#
#2396
0>"
07"
bxxx000 .
#2493
0)
#2537
0-"
0+"
#3089
0n
0u
bxx0000 .
#3244
0'
#3288
0X
0V
#3840
0B
0;
bx00000 .
#3995
0(
#4055
0_#
0^#
#4607
0b
0i
b000000 .
#4747
0&
#4821
0D#
0A#
#5373
06
0,
#5513
0$
#60000
1#
#60343
1^"
1`"
#60889
1J"
1C"
b000001 .
#60991
1+
#61034
1)#
1'#
#61580
1j"
1q"
b000011 .
#61677
1*
#61850
1z#
1v#
#62396
1>"
17"
b000111 .
#62493
1)
#62537
1-"
1+"
#63089
1n
1u
b001111 .
#63244
1'
#63288
1X
1V
#63840
1B
1;
b011111 .
#63995
1(
#64055
1_#
1^#
#64607
1b
1i
b111111 .
#64747
1&
#64821
1D#
1A#
#65373
16
1,
#65513
1$
#100000
0)$
#120000
0#
#120343
0^"
0`"
#120889
0J"
0C"
b111110 .
#120991
0+
#121034
0)#
0'#
#121580
0j"
0q"
b111100 .
#121677
0*
#121850
0z#
0v#
#122396
0>"
07"
b111000 .
#122493
0)
#122537
0-"
0+"
#123089
0n
0u
b110000 .
#123244
0'
#123288
0X
0V
#123840
0B
0;
b100000 .
#123995
0(
#124055
0_#
0^#
#124607
0b
0i
b000000 .
#124747
0&
#124821
0D#
0A#
#125373
06
0,
#125513
0$
